<?xml version="1.0" encoding="UTF-8" standalone="no"?>
<!DOCTYPE svg PUBLIC "-//W3C//DTD SVG 1.1//EN" "http://www.w3.org/Graphics/SVG/1.1/DTD/svg11.dtd">
<svg width="100%" height="100%" viewBox="0 0 252 252" version="1.1" xmlns="http://www.w3.org/2000/svg" xmlns:xlink="http://www.w3.org/1999/xlink" xml:space="preserve" style="fill-rule:evenodd;clip-rule:evenodd;stroke-linejoin:round;stroke-miterlimit:1.41421;">
    <g transform="matrix(1,0,0,1,-971.238,-1098.51)">
        <g>
            <g transform="matrix(2,0,0,2,0,0)">
                <path d="M611.313,612.104C611.313,646.812 583.175,674.949 548.466,674.949C513.755,674.949 485.619,646.812 485.619,612.104C485.619,577.395 513.755,549.257 548.466,549.257C583.175,549.257 611.313,577.395 611.313,612.104Z" style="fill:white;fill-rule:nonzero;"/>
            </g>
            <g transform="matrix(2,0,0,2,0,0)">
                <path d="M549,567L549,658C549,658.828 549.672,659.5 550.5,659.5C551.328,659.5 552,658.828 552,658L552,567C552,566.172 551.328,565.5 550.5,565.5C549.672,565.5 549,566.172 549,567Z" style="fill:rgb(12,184,225);fill-rule:nonzero;"/>
            </g>
            <g transform="matrix(2,0,0,2,0,0)">
                <path d="M538,578L563,578C563.828,578 564.5,577.328 564.5,576.5C564.5,575.672 563.828,575 563,575L538,575C537.172,575 536.5,575.672 536.5,576.5C536.5,577.328 537.172,578 538,578Z" style="fill:rgb(12,184,225);fill-rule:nonzero;"/>
            </g>
            <g transform="matrix(2,0,0,2,0,0)">
                <path d="M538,651L563,651C563.828,651 564.5,650.328 564.5,649.5C564.5,648.672 563.828,648 563,648L538,648C537.172,648 536.5,648.672 536.5,649.5C536.5,650.328 537.172,651 538,651Z" style="fill:rgb(12,184,225);fill-rule:nonzero;"/>
            </g>
            <g transform="matrix(2,0,0,2,0,0)">
                <path d="M595,610L504,610C503.172,610 502.5,610.672 502.5,611.5C502.5,612.328 503.172,613 504,613L595,613C595.828,613 596.5,612.328 596.5,611.5C596.5,610.672 595.828,610 595,610Z" style="fill:rgb(12,184,225);fill-rule:nonzero;"/>
            </g>
            <g transform="matrix(2,0,0,2,0,0)">
                <path d="M587,625L587,599C587,598.172 586.328,597.5 585.5,597.5C584.672,597.5 584,598.172 584,599L584,625C584,625.828 584.672,626.5 585.5,626.5C586.328,626.5 587,625.828 587,625Z" style="fill:rgb(12,184,225);fill-rule:nonzero;"/>
            </g>
            <g transform="matrix(2,0,0,2,0,0)">
                <path d="M515,625L515,599C515,598.172 514.328,597.5 513.5,597.5C512.672,597.5 512,598.172 512,599L512,625C512,625.828 512.672,626.5 513.5,626.5C514.328,626.5 515,625.828 515,625Z" style="fill:rgb(12,184,225);fill-rule:nonzero;"/>
            </g>
            <g transform="matrix(2,0,0,2,0,0)">
                <path d="M526.175,590.647L571.498,635.97C572.084,636.556 573.033,636.556 573.619,635.97C574.205,635.384 574.205,634.434 573.619,633.849L528.296,588.525C527.71,587.939 526.76,587.939 526.175,588.525C525.589,589.111 525.589,590.061 526.175,590.647Z" style="fill:rgb(12,184,225);fill-rule:nonzero;"/>
            </g>
            <g transform="matrix(2,0,0,2,0,0)">
                <path d="M526.235,601.635L539.283,588.586C539.869,588 539.869,587.05 539.283,586.465C538.697,585.879 537.748,585.879 537.162,586.465L524.114,599.514C523.528,600.099 523.528,601.049 524.114,601.635C524.7,602.221 525.65,602.221 526.235,601.635Z" style="fill:rgb(12,184,225);fill-rule:nonzero;"/>
            </g>
            <g transform="matrix(2,0,0,2,0,0)">
                <path d="M562.631,638.03L575.68,624.983C576.266,624.397 576.266,623.447 575.68,622.861C575.094,622.275 574.144,622.275 573.558,622.861L560.51,635.909C559.924,636.495 559.924,637.445 560.51,638.03C561.095,638.616 562.045,638.616 562.631,638.03Z" style="fill:rgb(12,184,225);fill-rule:nonzero;"/>
            </g>
            <g transform="matrix(2,0,0,2,0,0)">
                <path d="M570.811,588.525L525.488,633.849C524.902,634.434 524.902,635.384 525.488,635.97C526.074,636.556 527.024,636.556 527.609,635.97L572.933,590.647C573.518,590.061 573.518,589.111 572.933,588.525C572.347,587.939 571.397,587.939 570.811,588.525Z" style="fill:rgb(12,184,225);fill-rule:nonzero;"/>
            </g>
            <g transform="matrix(2,0,0,2,0,0)">
                <path d="M574.992,599.514L561.945,586.465C561.36,585.879 560.41,585.879 559.824,586.465C559.238,587.05 559.238,588 559.824,588.586L572.871,601.635C573.457,602.221 574.406,602.221 574.992,601.635C575.578,601.049 575.578,600.099 574.992,599.514Z" style="fill:rgb(12,184,225);fill-rule:nonzero;"/>
            </g>
            <g transform="matrix(2,0,0,2,0,0)">
                <path d="M538.596,635.909L525.549,622.861C524.963,622.275 524.013,622.275 523.427,622.861C522.841,623.447 522.841,624.397 523.427,624.982L536.474,638.03C537.06,638.616 538.01,638.616 538.596,638.03C539.182,637.445 539.182,636.495 538.596,635.909Z" style="fill:rgb(12,184,225);fill-rule:nonzero;"/>
            </g>
        </g>
    </g>
</svg>
